EESchema Schematic File Version 2  date 30/04/2013 19:29:35
LIBS:power
LIBS:device
LIBS:transistors
LIBS:conn
LIBS:linear
LIBS:regul
LIBS:74xx
LIBS:cmos4000
LIBS:adc-dac
LIBS:memory
LIBS:xilinx
LIBS:special
LIBS:microcontrollers
LIBS:dsp
LIBS:microchip
LIBS:analog_switches
LIBS:motorola
LIBS:texas
LIBS:intel
LIBS:audio
LIBS:interface
LIBS:digital-audio
LIBS:philips
LIBS:display
LIBS:cypress
LIBS:siliconi
LIBS:opto
LIBS:atmel
LIBS:contrib
LIBS:valves
LIBS:embedded-microcontrollers
LIBS:con-hirose
LIBS:custom
LIBS:diy_connectors
LIBS:diy_diodes
LIBS:diy_ics
LIBS:diy_rcl
LIBS:diy_regulators
LIBS:diy_switches
LIBS:diy_transformers
LIBS:diy_transistors
LIBS:diy_triac
LIBS:diy_tubes
LIBS:TI_MSP430_v16
EELAYER 27 0
EELAYER END
$Descr A4 11693 8268
encoding utf-8
Sheet 1 1
Title "FG-counter"
Date "30 apr 2013"
Rev ""
Comp ""
Comment1 ""
Comment2 ""
Comment3 ""
Comment4 ""
$EndDescr
$Comp
L LED D1
U 1 1 517D0351
P 3950 3450
F 0 "D1" H 3950 3550 50  0000 C CNN
F 1 "LED" H 3950 3350 50  0000 C CNN
F 2 "~" H 3950 3450 60  0000 C CNN
F 3 "~" H 3950 3450 60  0000 C CNN
	1    3950 3450
	-1   0    0    1   
$EndComp
$Comp
L LED D4
U 1 1 517D0361
P 7650 3950
F 0 "D4" H 7650 4050 50  0000 C CNN
F 1 "LED" H 7650 3850 50  0000 C CNN
F 2 "~" H 7650 3950 60  0000 C CNN
F 3 "~" H 7650 3950 60  0000 C CNN
	1    7650 3950
	1    0    0    1   
$EndComp
$Comp
L R R1
U 1 1 517D0421
P 4500 3450
F 0 "R1" V 4580 3450 40  0000 C CNN
F 1 "R" V 4507 3451 40  0000 C CNN
F 2 "~" V 4430 3450 30  0000 C CNN
F 3 "~" H 4500 3450 30  0000 C CNN
	1    4500 3450
	0    -1   -1   0   
$EndComp
$Comp
L R R2
U 1 1 517D0452
P 7100 3950
F 0 "R2" V 7180 3950 40  0000 C CNN
F 1 "R" V 7107 3951 40  0000 C CNN
F 2 "~" V 7030 3950 30  0000 C CNN
F 3 "~" H 7100 3950 30  0000 C CNN
	1    7100 3950
	0    -1   -1   0   
$EndComp
Wire Wire Line
	4900 3450 4750 3450
Wire Wire Line
	7350 3950 7450 3950
Wire Wire Line
	4250 3450 4150 3450
$Comp
L SW_PUSH SW1
U 1 1 517D074A
P 4450 3750
F 0 "SW1" H 4600 3860 50  0000 C CNN
F 1 "SW_PUSH" H 4450 3670 50  0000 C CNN
F 2 "~" H 4450 3750 60  0000 C CNN
F 3 "~" H 4450 3750 60  0000 C CNN
	1    4450 3750
	1    0    0    -1  
$EndComp
Wire Wire Line
	4900 3750 4750 3750
Wire Wire Line
	3650 3750 4150 3750
$Comp
L SW_PUSH SW2
U 1 1 517D07CA
P 7150 3750
F 0 "SW2" H 7300 3860 50  0000 C CNN
F 1 "SW_PUSH" H 7150 3670 50  0000 C CNN
F 2 "~" H 7150 3750 60  0000 C CNN
F 3 "~" H 7150 3750 60  0000 C CNN
	1    7150 3750
	-1   0    0    -1  
$EndComp
Wire Wire Line
	6750 3750 6850 3750
Wire Wire Line
	4900 3150 4900 3350
Wire Wire Line
	6750 3950 6850 3950
$Comp
L PHOTODIODE D2
U 1 1 517EA621
P 4050 2850
F 0 "D2" H 3950 2950 50  0000 C CNN
F 1 "PHOTODIODE" H 4050 2750 50  0000 C CNN
F 2 "" H 4050 2850 60  0000 C CNN
F 3 "" H 4050 2850 60  0000 C CNN
	1    4050 2850
	-1   0    0    -1  
$EndComp
Wire Wire Line
	4900 3550 4300 3550
Wire Wire Line
	4900 3650 4300 3650
Wire Wire Line
	4500 2850 4250 2850
Wire Wire Line
	3600 3150 3600 2850
Wire Wire Line
	3600 2850 3850 2850
$Comp
L LED D3
U 1 1 517EA72E
P 4000 4200
F 0 "D3" H 4000 4300 50  0000 C CNN
F 1 "LED" H 4000 4100 50  0000 C CNN
F 2 "~" H 4000 4200 60  0000 C CNN
F 3 "~" H 4000 4200 60  0000 C CNN
	1    4000 4200
	-1   0    0    1   
$EndComp
Wire Wire Line
	4450 4200 4200 4200
Wire Wire Line
	3800 4200 3700 4200
Text Label 4350 3550 0    60   ~ 0
toPhotoDiode
Text Label 4300 2850 0    60   ~ 0
toPhotoDiode
Text Label 4350 3650 0    60   ~ 0
toIRLed
Text Label 4250 4200 0    60   ~ 0
toIRLed
$Comp
L G2XX3---N20 U1
U 1 1 517EB935
P 5850 3650
F 0 "U1" H 5850 3650 60  0000 C CNN
F 1 "G2XX3---N20" H 5850 3650 60  0000 C CNN
F 2 "" H 5850 3650 60  0000 C CNN
F 3 "" H 5850 3650 60  0000 C CNN
	1    5850 3650
	1    0    0    -1  
$EndComp
Wire Wire Line
	6750 3350 8000 3350
Wire Wire Line
	8000 3350 8000 4600
Wire Wire Line
	7450 3750 8000 3750
Connection ~ 8000 3750
Wire Wire Line
	7850 3950 8000 3950
Connection ~ 8000 3950
NoConn ~ 4900 3850
NoConn ~ 4900 3950
NoConn ~ 4900 4050
NoConn ~ 4900 4150
NoConn ~ 4900 4250
NoConn ~ 6750 4250
NoConn ~ 6750 4150
NoConn ~ 6750 4050
NoConn ~ 6750 3850
NoConn ~ 6750 3650
NoConn ~ 6750 3550
NoConn ~ 6750 3450
$Comp
L LM1084IT-3.3/NOPB U?
U 1 1 517FEB4D
P 2900 3200
F 0 "U?" H 3100 3000 40  0000 C CNN
F 1 "LM1086IT-3.3/NOPB" H 2600 3400 40  0000 L CNN
F 2 "TO-220" H 2900 3300 30  0000 C CIN
F 3 "~" H 2900 3200 60  0000 C CNN
	1    2900 3200
	1    0    0    -1  
$EndComp
$Comp
L +6V #PWR?
U 1 1 517FEC41
P 2250 3150
F 0 "#PWR?" H 2250 3280 20  0001 C CNN
F 1 "+6V" H 2250 3250 30  0000 C CNN
F 2 "" H 2250 3150 60  0000 C CNN
F 3 "" H 2250 3150 60  0000 C CNN
	1    2250 3150
	1    0    0    -1  
$EndComp
Wire Wire Line
	2250 3150 2500 3150
$Comp
L C C?
U 1 1 517FECF2
P 2500 3450
F 0 "C?" H 2500 3550 40  0000 L CNN
F 1 "C" H 2506 3365 40  0000 L CNN
F 2 "~" H 2538 3300 30  0000 C CNN
F 3 "~" H 2500 3450 60  0000 C CNN
	1    2500 3450
	1    0    0    -1  
$EndComp
$Comp
L C C?
U 1 1 517FED01
P 3300 3450
F 0 "C?" H 3300 3550 40  0000 L CNN
F 1 "C" H 3306 3365 40  0000 L CNN
F 2 "~" H 3338 3300 30  0000 C CNN
F 3 "~" H 3300 3450 60  0000 C CNN
	1    3300 3450
	1    0    0    -1  
$EndComp
Wire Wire Line
	2500 3150 2500 3250
Wire Wire Line
	3300 3150 3300 3250
Wire Wire Line
	2500 3650 3650 3650
Wire Wire Line
	3300 3150 4900 3150
Wire Wire Line
	2900 3450 2900 3850
Connection ~ 2900 3650
$Comp
L GND #PWR?
U 1 1 517FEE17
P 2900 3850
F 0 "#PWR?" H 2900 3850 30  0001 C CNN
F 1 "GND" H 2900 3780 30  0001 C CNN
F 2 "" H 2900 3850 60  0000 C CNN
F 3 "" H 2900 3850 60  0000 C CNN
	1    2900 3850
	1    0    0    -1  
$EndComp
Wire Wire Line
	3750 3450 3650 3450
Connection ~ 3650 3450
Wire Wire Line
	3650 3450 3650 3750
$Comp
L R R?
U 1 1 517FF0C8
P 3450 4200
F 0 "R?" V 3530 4200 40  0000 C CNN
F 1 "R" V 3457 4201 40  0000 C CNN
F 2 "~" V 3380 4200 30  0000 C CNN
F 3 "~" H 3450 4200 30  0000 C CNN
	1    3450 4200
	0    -1   -1   0   
$EndComp
Wire Wire Line
	3200 3650 3200 4600
Connection ~ 3200 3650
Wire Wire Line
	3200 4600 8000 4600
Connection ~ 3200 4200
$EndSCHEMATC
